module gitlab.com/ruijc/core

go 1.23

require (
	github.com/goexl/exception v0.0.3
	github.com/goexl/gox v1.8.9
	github.com/goexl/log v0.0.7
	github.com/goexl/mengpo v0.2.6
	github.com/goexl/structer v0.1.9
	github.com/goexl/xiren v0.0.8
	github.com/pangum/pangu v1.5.3
	github.com/stretchr/testify v1.9.0
	google.golang.org/grpc v1.67.1
)

require (
	github.com/cpuguy83/go-md2man/v2 v2.0.5 // indirect
	github.com/davecgh/go-spew v1.1.1 // indirect
	github.com/drone/envsubst v1.0.3 // indirect
	github.com/fsnotify/fsnotify v1.8.0 // indirect
	github.com/gabriel-vasile/mimetype v1.4.6 // indirect
	github.com/go-playground/locales v0.14.1 // indirect
	github.com/go-playground/universal-translator v0.18.1 // indirect
	github.com/go-playground/validator/v10 v10.22.1 // indirect
	github.com/goexl/baozheng v0.0.1 // indirect
	github.com/goexl/env v0.0.2 // indirect
	github.com/goexl/gfx v0.2.3 // indirect
	github.com/google/uuid v1.6.0 // indirect
	github.com/kr/pretty v0.3.1 // indirect
	github.com/leodido/go-urn v1.4.0 // indirect
	github.com/mattn/go-runewidth v0.0.16 // indirect
	github.com/mitchellh/mapstructure v1.5.0 // indirect
	github.com/olekukonko/tablewriter v0.0.5 // indirect
	github.com/pangum/config v0.1.0 // indirect
	github.com/pmezard/go-difflib v1.0.1-0.20181226105442-5d4384ee4fb2 // indirect
	github.com/rivo/uniseg v0.4.7 // indirect
	github.com/rogpeppe/go-internal v1.10.0 // indirect
	github.com/rs/xid v1.6.0 // indirect
	github.com/russross/blackfriday/v2 v2.1.0 // indirect
	github.com/urfave/cli/v2 v2.27.5 // indirect
	github.com/xrash/smetrics v0.0.0-20240521201337-686a1a2994c1 // indirect
	github.com/zs5460/art v0.3.0 // indirect
	go.uber.org/dig v1.18.0 // indirect
	golang.org/x/crypto v0.28.0 // indirect
	golang.org/x/net v0.30.0 // indirect
	golang.org/x/sys v0.26.0 // indirect
	golang.org/x/text v0.19.0 // indirect
	google.golang.org/genproto/googleapis/rpc v0.0.0-20241104194629-dd2ea8efbc28 // indirect
	google.golang.org/protobuf v1.35.1 // indirect
	gopkg.in/check.v1 v1.0.0-20201130134442-10cb98267c6c // indirect
	gopkg.in/yaml.v3 v3.0.1 // indirect
)
